<svg width="96" height="70" viewBox="0 0 96 70" fill="none" xmlns="http://www.w3.org/2000/svg">
<g clip-path="url(#clip0)">
<path d="M56 19H59V55H56V19Z" fill="#334DA6"/>
<rect x="1" y="9" width="55" height="4" fill="#334DA6"/>
<path d="M61 39H65" stroke="#AABEFF" stroke-linecap="round"/>
<path d="M71 50L82 50" stroke="#AABEFF" stroke-linecap="round"/>
<path d="M22 50L63 50" stroke="#AABEFF" stroke-linecap="round"/>
<path d="M3 50L15 50" stroke="#AABEFF" stroke-linecap="round"/>
<path d="M73 23V36" stroke="#AABEFF"/>
<path d="M24 55H56V9H2V55H12" stroke="#AABEFF" stroke-width="2" stroke-miterlimit="10" stroke-linejoin="round"/>
<path d="M14.6299 24.3172L17.4447 27.1124L22.6052 21.9879" stroke="#AABEFF" stroke-width="2" stroke-linecap="round" stroke-linejoin="round"/>
<path d="M27.2654 24.3173C27.2654 29.1837 23.2918 33.1346 18.3827 33.1346C13.4736 33.1346 9.5 29.1837 9.5 24.3173C9.5 19.4509 13.4736 15.5 18.3827 15.5C23.2918 15.5 27.2654 19.4509 27.2654 24.3173Z" stroke="#AABEFF"/>
<path d="M73 55H83V36L76.5 19H56V55H61" stroke="#AABEFF" stroke-width="2" stroke-miterlimit="10" stroke-linejoin="round"/>
<path d="M78 23H61V36H83" stroke="#AABEFF"/>
<circle cx="18" cy="55" r="6" stroke="#AABEFF" stroke-width="2" stroke-miterlimit="10" stroke-linejoin="round"/>
<circle cx="67" cy="55" r="6" stroke="#AABEFF" stroke-width="2" stroke-miterlimit="10" stroke-linejoin="round"/>
</g>
<defs>
<clipPath id="clip0">
<rect width="96" height="70" fill="white"/>
</clipPath>
</defs>
</svg>
