<svg version="1.1"
	 xmlns="http://www.w3.org/2000/svg" xmlns:xlink="http://www.w3.org/1999/xlink" x="0px" y="0px" width="19.4px" height="22.8px" viewBox="0 0 19.4 22.8" style="enable-background:new 0 0 19.4 22.8;"
	 xml:space="preserve">
	<g>
		<path stroke="currentColor" stroke-width="2" d="M9,20.4v-18l9,9L9,20.4z"/>
		<path stroke="currentColor" stroke-width="2" d="M18,11.4H0"/>
	</g>
</svg>
